com\shirin\evaluator\exceptions\MainApp.class
com\shirin\evaluator\exceptions\NoneBinaryException.class
com\shirin\evaluator\Evaluator.class
com\shirin\evaluator\exceptions\NoneMatchingParenthesisException.class
com\shirin\evaluator\exceptions\DivisionByZeroException.class
com\shirin\evaluator\exceptions\NoneValidStringInInputQueueException.class
