<?xml version="1.0" encoding="UTF-8"?>
<testsuite xmlns:xsi="http://www.w3.org/2001/XMLSchema-instance" xsi:noNamespaceSchemaLocation="https://maven.apache.org/surefire/maven-surefire-plugin/xsd/surefire-test-report.xsd" name="com.shirin.Test.EvaluatorTest" time="3.763" tests="50" errors="0" skipped="0" failures="0">
  <properties>
    <property name="sun.desktop" value="windows"/>
    <property name="awt.toolkit" value="sun.awt.windows.WToolkit"/>
    <property name="java.specification.version" value="12"/>
    <property name="sun.cpu.isalist" value="amd64"/>
    <property name="sun.jnu.encoding" value="Cp1252"/>
    <property name="java.class.path" value="C:\Users\eskan\Videos\DAWSON\5semester\Java\New folder (2)\evaluatorshirin1612280\1612280postfixevaluator\target\test-classes;C:\Users\eskan\Videos\DAWSON\5semester\Java\New folder (2)\evaluatorshirin1612280\1612280postfixevaluator\target\classes;C:\Users\eskan\.m2\repository\org\slf4j\slf4j-api\1.7.26\slf4j-api-1.7.26.jar;C:\Users\eskan\.m2\repository\org\apache\logging\log4j\log4j-slf4j-impl\2.12.0\log4j-slf4j-impl-2.12.0.jar;C:\Users\eskan\.m2\repository\org\apache\logging\log4j\log4j-api\2.12.0\log4j-api-2.12.0.jar;C:\Users\eskan\.m2\repository\org\apache\logging\log4j\log4j-core\2.12.0\log4j-core-2.12.0.jar;C:\Users\eskan\.m2\repository\org\junit\jupiter\junit-jupiter-engine\5.5.1\junit-jupiter-engine-5.5.1.jar;C:\Users\eskan\.m2\repository\org\apiguardian\apiguardian-api\1.1.0\apiguardian-api-1.1.0.jar;C:\Users\eskan\.m2\repository\org\junit\platform\junit-platform-engine\1.5.1\junit-platform-engine-1.5.1.jar;C:\Users\eskan\.m2\repository\org\opentest4j\opentest4j\1.2.0\opentest4j-1.2.0.jar;C:\Users\eskan\.m2\repository\org\junit\platform\junit-platform-commons\1.5.1\junit-platform-commons-1.5.1.jar;C:\Users\eskan\.m2\repository\org\junit\jupiter\junit-jupiter-api\5.5.1\junit-jupiter-api-5.5.1.jar;C:\Users\eskan\.m2\repository\org\junit\vintage\junit-vintage-engine\5.5.1\junit-vintage-engine-5.5.1.jar;C:\Users\eskan\.m2\repository\junit\junit\4.12\junit-4.12.jar;C:\Users\eskan\.m2\repository\org\hamcrest\hamcrest-core\1.3\hamcrest-core-1.3.jar;"/>
    <property name="java.vm.vendor" value="Oracle Corporation"/>
    <property name="sun.arch.data.model" value="64"/>
    <property name="user.variant" value=""/>
    <property name="java.vendor.url" value="https://java.oracle.com/"/>
    <property name="user.timezone" value="America/Toronto"/>
    <property name="org.apache.logging.log4j.assignedSequences" value="2190"/>
    <property name="os.name" value="Windows 10"/>
    <property name="java.vm.specification.version" value="12"/>
    <property name="user.country" value="CA"/>
    <property name="sun.java.launcher" value="SUN_STANDARD"/>
    <property name="sun.boot.library.path" value="C:\Program Files\Java\jdk-12.0.2\bin"/>
    <property name="sun.java.command" value="C:\Users\eskan\AppData\Local\Temp\surefire10682110778103738542\surefirebooter593672902092830083.jar C:\Users\eskan\AppData\Local\Temp\surefire10682110778103738542 2019-12-08T19-27-02_354-jvmRun1 surefire16023583824346234095tmp surefire_03806185557881981292tmp"/>
    <property name="jdk.debug" value="release"/>
    <property name="test" value="com.shirin.Test.EvaluatorTest"/>
    <property name="surefire.test.class.path" value="C:\Users\eskan\Videos\DAWSON\5semester\Java\New folder (2)\evaluatorshirin1612280\1612280postfixevaluator\target\test-classes;C:\Users\eskan\Videos\DAWSON\5semester\Java\New folder (2)\evaluatorshirin1612280\1612280postfixevaluator\target\classes;C:\Users\eskan\.m2\repository\org\slf4j\slf4j-api\1.7.26\slf4j-api-1.7.26.jar;C:\Users\eskan\.m2\repository\org\apache\logging\log4j\log4j-slf4j-impl\2.12.0\log4j-slf4j-impl-2.12.0.jar;C:\Users\eskan\.m2\repository\org\apache\logging\log4j\log4j-api\2.12.0\log4j-api-2.12.0.jar;C:\Users\eskan\.m2\repository\org\apache\logging\log4j\log4j-core\2.12.0\log4j-core-2.12.0.jar;C:\Users\eskan\.m2\repository\org\junit\jupiter\junit-jupiter-engine\5.5.1\junit-jupiter-engine-5.5.1.jar;C:\Users\eskan\.m2\repository\org\apiguardian\apiguardian-api\1.1.0\apiguardian-api-1.1.0.jar;C:\Users\eskan\.m2\repository\org\junit\platform\junit-platform-engine\1.5.1\junit-platform-engine-1.5.1.jar;C:\Users\eskan\.m2\repository\org\opentest4j\opentest4j\1.2.0\opentest4j-1.2.0.jar;C:\Users\eskan\.m2\repository\org\junit\platform\junit-platform-commons\1.5.1\junit-platform-commons-1.5.1.jar;C:\Users\eskan\.m2\repository\org\junit\jupiter\junit-jupiter-api\5.5.1\junit-jupiter-api-5.5.1.jar;C:\Users\eskan\.m2\repository\org\junit\vintage\junit-vintage-engine\5.5.1\junit-vintage-engine-5.5.1.jar;C:\Users\eskan\.m2\repository\junit\junit\4.12\junit-4.12.jar;C:\Users\eskan\.m2\repository\org\hamcrest\hamcrest-core\1.3\hamcrest-core-1.3.jar;"/>
    <property name="sun.cpu.endian" value="little"/>
    <property name="user.home" value="C:\Users\eskan"/>
    <property name="user.language" value="en"/>
    <property name="java.specification.vendor" value="Oracle Corporation"/>
    <property name="java.version.date" value="2019-07-16"/>
    <property name="java.home" value="C:\Program Files\Java\jdk-12.0.2"/>
    <property name="file.separator" value="\"/>
    <property name="basedir" value="C:\Users\eskan\Videos\DAWSON\5semester\Java\New folder (2)\evaluatorshirin1612280\1612280postfixevaluator"/>
    <property name="java.vm.compressedOopsMode" value="32-bit"/>
    <property name="line.separator" value="&#10;"/>
    <property name="java.vm.specification.vendor" value="Oracle Corporation"/>
    <property name="java.specification.name" value="Java Platform API Specification"/>
    <property name="java.awt.graphicsenv" value="sun.awt.Win32GraphicsEnvironment"/>
    <property name="surefire.real.class.path" value="C:\Users\eskan\AppData\Local\Temp\surefire10682110778103738542\surefirebooter593672902092830083.jar"/>
    <property name="user.script" value=""/>
    <property name="sun.management.compiler" value="HotSpot 64-Bit Tiered Compilers"/>
    <property name="java.runtime.version" value="12.0.2+10"/>
    <property name="user.name" value="eskan"/>
    <property name="path.separator" value=";"/>
    <property name="os.version" value="10.0"/>
    <property name="java.runtime.name" value="Java(TM) SE Runtime Environment"/>
    <property name="file.encoding" value="UTF-8"/>
    <property name="java.vm.name" value="Java HotSpot(TM) 64-Bit Server VM"/>
    <property name="maven.ext.class.path" value="C:\netbeans\java\maven-nblib\netbeans-eventspy.jar"/>
    <property name="localRepository" value="C:\Users\eskan\.m2\repository"/>
    <property name="java.vendor.url.bug" value="https://bugreport.java.com/bugreport/"/>
    <property name="java.io.tmpdir" value="C:\Users\eskan\AppData\Local\Temp\"/>
    <property name="java.version" value="12.0.2"/>
    <property name="user.dir" value="C:\Users\eskan\Videos\DAWSON\5semester\Java\New folder (2)\evaluatorshirin1612280\1612280postfixevaluator"/>
    <property name="os.arch" value="amd64"/>
    <property name="java.vm.specification.name" value="Java Virtual Machine Specification"/>
    <property name="sun.os.patch.level" value=""/>
    <property name="java.library.path" value="C:\Program Files\Java\jdk-12.0.2\bin;C:\Windows\Sun\Java\bin;C:\Windows\system32;C:\Windows;C:\Program Files\Java\jdk-12.0.2\bin;C:\Program Files\Java\jdk-12.0.2\bin;C:\Program Files (x86)\Intel\Intel(R) Management Engine Components\iCLS\;C:\Program Files\Intel\Intel(R) Management Engine Components\iCLS\;C:\Windows\system32;C:\Windows;C:\Windows\System32\Wbem;C:\Windows\System32\WindowsPowerShell\v1.0\;C:\Windows\System32\OpenSSH\;C:\Program Files (x86)\Intel\Intel(R) Management Engine Components\DAL;C:\Program Files\Intel\Intel(R) Management Engine Components\DAL;C:\Program Files\apache-maven\apache-maven-3.6.2\bin;C:\Program Files\Git\cmd;C:\Program Files\MySQL\MySQL Shell 8.0\bin\;C:\Users\eskan\AppData\Local\Programs\Microsoft VS Code\bin;C:\Users\eskan\AppData\Local\atom\bin;."/>
    <property name="java.vm.info" value="mixed mode, sharing"/>
    <property name="java.vendor" value="Oracle Corporation"/>
    <property name="java.vm.version" value="12.0.2+10"/>
    <property name="sun.io.unicode.encoding" value="UnicodeLittle"/>
    <property name="java.class.version" value="56.0"/>
  </properties>
  <testcase name="convertTest[0 plan[10 - { 2 / 2 + 3 - { 10 + 27 } } - 5]=10 2 2 / 3 + 10 27 + - - 5 -]]" classname="com.shirin.Test.EvaluatorTest" time="0.091"/>
  <testcase name="evaluateTest[0 plan[10 - { 2 / 2 + 3 - { 10 + 27 } } - 5]=10 2 2 / 3 + 10 27 + - - 5 -]]" classname="com.shirin.Test.EvaluatorTest" time="0.079"/>
  <testcase name="convertTest[1 plan[2 * 3 + 4]=2 3 * 4 +]]" classname="com.shirin.Test.EvaluatorTest" time="0.011"/>
  <testcase name="evaluateTest[1 plan[2 * 3 + 4]=2 3 * 4 +]]" classname="com.shirin.Test.EvaluatorTest" time="0.032"/>
  <testcase name="convertTest[2 plan[{ 13 + 27 } * 2 - 34 / 17 + 2 * 7]=13 27 + 2 * 34 17 / - 2 7 * +]]" classname="com.shirin.Test.EvaluatorTest" time="0.154"/>
  <testcase name="evaluateTest[2 plan[{ 13 + 27 } * 2 - 34 / 17 + 2 * 7]=13 27 + 2 * 34 17 / - 2 7 * +]]" classname="com.shirin.Test.EvaluatorTest" time="0.12"/>
  <testcase name="convertTest[3 plan[{ 5 + 1 } * 2 + 3]=5 1 + 2 * 3 +]]" classname="com.shirin.Test.EvaluatorTest" time="0.025"/>
  <testcase name="evaluateTest[3 plan[{ 5 + 1 } * 2 + 3]=5 1 + 2 * 3 +]]" classname="com.shirin.Test.EvaluatorTest" time="0.049"/>
  <testcase name="convertTest[4 plan[5 + { 1 * 2 } + 3]=5 1 2 * + 3 +]]" classname="com.shirin.Test.EvaluatorTest" time="0.023"/>
  <testcase name="evaluateTest[4 plan[5 + { 1 * 2 } + 3]=5 1 2 * + 3 +]]" classname="com.shirin.Test.EvaluatorTest" time="0.054"/>
  <testcase name="convertTest[5 plan[{ 22 / 11 + 3 - 7 } * 12 - { 2 + 1 }]=22 11 / 3 + 7 - 12 * 2 1 + -]]" classname="com.shirin.Test.EvaluatorTest" time="0.053"/>
  <testcase name="evaluateTest[5 plan[{ 22 / 11 + 3 - 7 } * 12 - { 2 + 1 }]=22 11 / 3 + 7 - 12 * 2 1 + -]]" classname="com.shirin.Test.EvaluatorTest" time="0.099"/>
  <testcase name="convertTest[6 plan[1 / 0.4 + 2.3 - { -10 }]=1 0.4 / 2.3 + -10 -]]" classname="com.shirin.Test.EvaluatorTest" time="0.027"/>
  <testcase name="evaluateTest[6 plan[1 / 0.4 + 2.3 - { -10 }]=1 0.4 / 2.3 + -10 -]]" classname="com.shirin.Test.EvaluatorTest" time="0.053"/>
  <testcase name="convertTest[7 plan[11 + 1 - 100 * 2 / { 50 - 25 } + 25]=11 1 + 100 2 * 50 25 - / - 25 +]]" classname="com.shirin.Test.EvaluatorTest" time="0.043"/>
  <testcase name="evaluateTest[7 plan[11 + 1 - 100 * 2 / { 50 - 25 } + 25]=11 1 + 100 2 * 50 25 - / - 25 +]]" classname="com.shirin.Test.EvaluatorTest" time="0.089"/>
  <testcase name="convertTest[8 plan[11 + { { 1 - 100 } * 2 / { 50 - 25 } } + 25]=11 1 100 - 2 * 50 25 - / + 25 +]]" classname="com.shirin.Test.EvaluatorTest" time="0.057"/>
  <testcase name="evaluateTest[8 plan[11 + { { 1 - 100 } * 2 / { 50 - 25 } } + 25]=11 1 100 - 2 * 50 25 - / + 25 +]]" classname="com.shirin.Test.EvaluatorTest" time="0.106"/>
  <testcase name="convertTest[9 plan[2.3 * 3 + 4.7]=2.3 3 * 4.7 +]]" classname="com.shirin.Test.EvaluatorTest" time="0.014"/>
  <testcase name="evaluateTest[9 plan[2.3 * 3 + 4.7]=2.3 3 * 4.7 +]]" classname="com.shirin.Test.EvaluatorTest" time="0.032"/>
  <testcase name="convertTest[10 plan[1.4 * 2 - 2.3 + { -17.3 }]=1.4 2 * 2.3 - -17.3 +]]" classname="com.shirin.Test.EvaluatorTest" time="0.026"/>
  <testcase name="evaluateTest[10 plan[1.4 * 2 - 2.3 + { -17.3 }]=1.4 2 * 2.3 - -17.3 +]]" classname="com.shirin.Test.EvaluatorTest" time="0.053"/>
  <testcase name="convertTest[11 plan[{ { 3 + 11 } / { 2 + 8 } - 3 } * 2]=3 11 + 2 8 + / 3 - 2 *]]" classname="com.shirin.Test.EvaluatorTest" time="0.05"/>
  <testcase name="evaluateTest[11 plan[{ { 3 + 11 } / { 2 + 8 } - 3 } * 2]=3 11 + 2 8 + / 3 - 2 *]]" classname="com.shirin.Test.EvaluatorTest" time="0.085"/>
  <testcase name="convertTest[12 plan[1 / 0.4 + 2.3 - { -10 }]=1 0.4 / 2.3 + -10 -]]" classname="com.shirin.Test.EvaluatorTest" time="0.167"/>
  <testcase name="evaluateTest[12 plan[1 / 0.4 + 2.3 - { -10 }]=1 0.4 / 2.3 + -10 -]]" classname="com.shirin.Test.EvaluatorTest" time="0.081"/>
  <testcase name="convertTest[13 plan[{ 2 + 8 * 2 / 4 } - { 3 + 7 } / 2 + 7]=2 8 2 * 4 / + 3 7 + 2 / - 7 +]]" classname="com.shirin.Test.EvaluatorTest" time="0.066"/>
  <testcase name="evaluateTest[13 plan[{ 2 + 8 * 2 / 4 } - { 3 + 7 } / 2 + 7]=2 8 2 * 4 / + 3 7 + 2 / - 7 +]]" classname="com.shirin.Test.EvaluatorTest" time="0.119"/>
  <testcase name="convertTest[14 plan[{ 22 / 11 + 3 - 7 } * 12 - { 2 + 1 }]=22 11 / 3 + 7 - 12 * 2 1 + -]]" classname="com.shirin.Test.EvaluatorTest" time="0.051"/>
  <testcase name="evaluateTest[14 plan[{ 22 / 11 + 3 - 7 } * 12 - { 2 + 1 }]=22 11 / 3 + 7 - 12 * 2 1 + -]]" classname="com.shirin.Test.EvaluatorTest" time="0.096"/>
  <testcase name="convertTest[15 plan[{ -10 * 8 } * 100 + 21 / 7]=-10 8 * 100 * 21 7 / +]]" classname="com.shirin.Test.EvaluatorTest" time="0.026"/>
  <testcase name="evaluateTest[15 plan[{ -10 * 8 } * 100 + 21 / 7]=-10 8 * 100 * 21 7 / +]]" classname="com.shirin.Test.EvaluatorTest" time="0.057"/>
  <testcase name="convertTest[16 plan[2 + 2 + 2 + 2 + 2]=2 2 + 2 + 2 + 2 +]]" classname="com.shirin.Test.EvaluatorTest" time="0.025"/>
  <testcase name="evaluateTest[16 plan[2 + 2 + 2 + 2 + 2]=2 2 + 2 + 2 + 2 +]]" classname="com.shirin.Test.EvaluatorTest" time="0.058"/>
  <testcase name="convertTest[17 plan[100 / 10 * 2.5 + { -20 }]=100 10 / 2.5 * -20 +]]" classname="com.shirin.Test.EvaluatorTest" time="0.025"/>
  <testcase name="evaluateTest[17 plan[100 / 10 * 2.5 + { -20 }]=100 10 / 2.5 * -20 +]]" classname="com.shirin.Test.EvaluatorTest" time="0.049"/>
  <testcase name="convertTest[18 plan[10 - { 2 / 2 + 3 - { 10 + 27 } } - 5]=10 2 2 / 3 + 10 27 + - - 5 -]]" classname="com.shirin.Test.EvaluatorTest" time="0.048"/>
  <testcase name="evaluateTest[18 plan[10 - { 2 / 2 + 3 - { 10 + 27 } } - 5]=10 2 2 / 3 + 10 27 + - - 5 -]]" classname="com.shirin.Test.EvaluatorTest" time="0.095"/>
  <testcase name="convertTest[19 plan[{ 1 + { 3 + { 4 - 5 } * 3 } - 5 } - 10]=1 3 4 5 - 3 * + + 5 - 10 -]]" classname="com.shirin.Test.EvaluatorTest" time="0.057"/>
  <testcase name="evaluateTest[19 plan[{ 1 + { 3 + { 4 - 5 } * 3 } - 5 } - 10]=1 3 4 5 - 3 * + + 5 - 10 -]]" classname="com.shirin.Test.EvaluatorTest" time="0.104"/>
  <testcase name="convertTest[20 plan[{ { { { { 2 + 7 } - 5 * 2 } / 2 } - 2 } + 10 } * 3]=2 7 + 5 2 * - 2 / 2 - 10 + 3 *]]" classname="com.shirin.Test.EvaluatorTest" time="0.08"/>
  <testcase name="evaluateTest[20 plan[{ { { { { 2 + 7 } - 5 * 2 } / 2 } - 2 } + 10 } * 3]=2 7 + 5 2 * - 2 / 2 - 10 + 3 *]]" classname="com.shirin.Test.EvaluatorTest" time="0.323"/>
  <testcase name="convertTest[21 plan[10 / 2]=10 2 /]]" classname="com.shirin.Test.EvaluatorTest" time="0.006"/>
  <testcase name="evaluateTest[21 plan[10 / 2]=10 2 /]]" classname="com.shirin.Test.EvaluatorTest" time="0.021"/>
  <testcase name="convertTest[22 plan[22 / 2 + 2 * 2 - 2 + 2]=22 2 / 2 2 * + 2 - 2 +]]" classname="com.shirin.Test.EvaluatorTest" time="0.06"/>
  <testcase name="evaluateTest[22 plan[22 / 2 + 2 * 2 - 2 + 2]=22 2 / 2 2 * + 2 - 2 +]]" classname="com.shirin.Test.EvaluatorTest" time="0.072"/>
  <testcase name="convertTest[23 plan[{ { 12 - 10 } / 5 + { 33 + 11 } - 15 } * 23]=12 10 - 5 / 33 11 + + 15 - 23 *]]" classname="com.shirin.Test.EvaluatorTest" time="0.057"/>
  <testcase name="evaluateTest[23 plan[{ { 12 - 10 } / 5 + { 33 + 11 } - 15 } * 23]=12 10 - 5 / 33 11 + + 15 - 23 *]]" classname="com.shirin.Test.EvaluatorTest" time="0.132"/>
  <testcase name="convertTest[24 plan[1.4 * 2 - 2.3 + { -17.3 }]=1.4 2 * 2.3 - -17.3 +]]" classname="com.shirin.Test.EvaluatorTest" time="0.041"/>
  <testcase name="evaluateTest[24 plan[1.4 * 2 - 2.3 + { -17.3 }]=1.4 2 * 2.3 - -17.3 +]]" classname="com.shirin.Test.EvaluatorTest" time="0.053"/>
</testsuite>